%YAML 1.1
%TAG !u! tag:unity3d.com,2011:
--- !u!114 &11400000
MonoBehaviour:
  m_ObjectHideFlags: 0
  m_CorrespondingSourceObject: {fileID: 0}
  m_PrefabInstance: {fileID: 0}
  m_PrefabAsset: {fileID: 0}
  m_GameObject: {fileID: 0}
  m_Enabled: 1
  m_EditorHideFlags: 0
  m_Script: {fileID: 11500000, guid: 56d1d4b172628e548b8fb1b231635643, type: 3}
  m_Name: UnitData
  m_EditorClassIdentifier: 
  _rotationSpeed: 300
  _movementSpeed: 9
  _clearance: 1
