%YAML 1.1
%TAG !u! tag:unity3d.com,2011:
--- !u!114 &11400000
MonoBehaviour:
  m_ObjectHideFlags: 0
  m_CorrespondingSourceObject: {fileID: 0}
  m_PrefabInstance: {fileID: 0}
  m_PrefabAsset: {fileID: 0}
  m_GameObject: {fileID: 0}
  m_Enabled: 1
  m_EditorHideFlags: 0
  m_Script: {fileID: 11500000, guid: b5db3dd3b00c0dd4ab91b3a324d5a0ee, type: 3}
  m_Name: CubeLong
  m_EditorClassIdentifier: 
  _objectGridVertices:
  - {x: -5, y: 0}
  - {x: -4, y: 0}
  - {x: -3, y: 0}
  - {x: -2, y: 0}
  - {x: -1, y: 0}
  - {x: 0, y: 0}
  - {x: 1, y: 0}
  - {x: 2, y: 0}
  - {x: 3, y: 0}
  - {x: 4, y: 0}
  - {x: 5, y: 0}
